{
    "H":[
        {
            "name": "Hidrógeno",
            "density": 0.000082
        }
    ],
    "He":[
        {
            "name":"Helio",
            "density":0.000164
        }
    ],
    "Li":[
        {
            "name":"Litio",
            "density":0.534
        }
    ],
    "Be":[
        {
            "name":"Berilio",
            "density":1.85
        }
    ],
    "B":[
        {
            "name":"Boro",
            "density":2.34
        }
    ],
    "C":[
        {
            "name":"Carbono",
            "density":2.2
        }
    ],
    "N":[
        {
            "name":"Nitrógeno",
            "density":0.001145
        }
    ],
    "O":[
        {
            "name":"Oxígeno",
            "density":0.001308
        }
    ],
    "F":[
        {
            "name":"Fluor",
            "density":0.001553
        }
    ],
    "HE":[
        {
            "name":"Neón",
            "density":0.000825
        }
    ]
}